%YAML 1.1
%TAG !u! tag:unity3d.com,2011:
--- !u!114 &11400000
MonoBehaviour:
  m_ObjectHideFlags: 0
  m_CorrespondingSourceObject: {fileID: 0}
  m_PrefabInstance: {fileID: 0}
  m_PrefabAsset: {fileID: 0}
  m_GameObject: {fileID: 0}
  m_Enabled: 1
  m_EditorHideFlags: 0
  m_Script: {fileID: 11500000, guid: 2e996a728c4f38a4a805ac6c9a83ce61, type: 3}
  m_Name: Prefab References Container Placeholder
  m_EditorClassIdentifier: 
  casillasPrefab:
    m_keys: 
    m_values: []
  fallbackPrefab: {fileID: 909334141558622872, guid: 566d58356490e174ca69450c4fead9cc,
    type: 3}
