%YAML 1.1
%TAG !u! tag:unity3d.com,2011:
--- !u!114 &11400000
MonoBehaviour:
  m_ObjectHideFlags: 0
  m_CorrespondingSourceObject: {fileID: 0}
  m_PrefabInstance: {fileID: 0}
  m_PrefabAsset: {fileID: 0}
  m_GameObject: {fileID: 0}
  m_Enabled: 1
  m_EditorHideFlags: 0
  m_Script: {fileID: 11500000, guid: f3fb1666d00142d49882fb5fccceb13d, type: 3}
  m_Name: 4RelacionesToxicas
  m_EditorClassIdentifier: 
  title: "Relaciones t\xF3xicas"
  description: "A Ancianos Danzarines S.L. le gustar\xEDa tirar unos insignificantes
    e inocuos residuos t\xF3xicos al mar. Ofrecen un \"donativo especial\" por las
    molestias."
  icon: {fileID: 21300000, guid: 53f245ab71789674789c86dc59a94571, type: 3}
  options:
  - text: "\xA1C\xF3mo se atreven! Los denuncias al Comit\xE9 de Defensa Medioambiental."
    effectData:
      moneyChange: 0
      populationChange: 4
      ecologyChange: 0
      businessChange: -5
  - text: "Ese dinero ayudar\xEDa mucho a las familias de conejitos hu\xE9rfanos.
      Y a ti."
    effectData:
      moneyChange: 4
      populationChange: 0
      ecologyChange: -8
      businessChange: 0
  - text: "\xA1C\xF3mo se atreven! Pides el doble de dinero."
    effectData:
      moneyChange: 8
      populationChange: 0
      ecologyChange: -8
      businessChange: -4
  ecoInfluence: 2
  businessInfluence: 1
  popularityInflucence: 2
