%YAML 1.1
%TAG !u! tag:unity3d.com,2011:
--- !u!114 &11400000
MonoBehaviour:
  m_ObjectHideFlags: 0
  m_CorrespondingSourceObject: {fileID: 0}
  m_PrefabInstance: {fileID: 0}
  m_PrefabAsset: {fileID: 0}
  m_GameObject: {fileID: 0}
  m_Enabled: 1
  m_EditorHideFlags: 0
  m_Script: {fileID: 11500000, guid: f3fb1666d00142d49882fb5fccceb13d, type: 3}
  m_Name: 9CambiasLasCosas
  m_EditorClassIdentifier: 
  title: Cambiar las cosas
  description: "Has recibido una petici\xF3n de CambiaCosas.org con 30 trillones de
    firmas de ciudadanos para que, literalmente \"Mejores las cosas y las cambies,
    que ahora las cosas no est\xE1n tan bien como podr\xEDan estar\"."
  icon: {fileID: 21300000, guid: e5d75e603df79b44698ced52137d6a2b, type: 3}
  options:
  - text: "Re\xFAnes al Congreso para discutir sobre las Cosas, sabiendo lo dif\xEDcil
      del asunto. "
    effectData:
      moneyChange: 0
      populationChange: 2
      ecologyChange: 0
      businessChange: 0
  - text: "Las Cosas est\xE1n muy bien como est\xE1n.   -Alg\xFAn rey franc\xE9s."
    effectData:
      moneyChange: 0
      populationChange: -7
      ecologyChange: 0
      businessChange: 0
  - text: Organizas un partido de bicitbol de unos cuantos millones para que se olviden
      de esas cosas.
    effectData:
      moneyChange: -6
      populationChange: 3
      ecologyChange: 0
      businessChange: 0
  ecoInfluence: 2
  businessInfluence: 2
  popularityInflucence: 2
