newmtl fatHexSG1
illum 4
Kd 0.38 0.14 0.07
Ka 0.38 0.14 0.07
Tf 1.00 1.00 1.00
Ni 1.00
Ks 0.00 0.00 0.00
Ns 6.00
newmtl initialShadingGroup
illum 4
Kd 0.50 0.50 0.50
Ka 0.00 0.00 0.00
Tf 1.00 1.00 1.00
Ni 1.00
