%YAML 1.1
%TAG !u! tag:unity3d.com,2011:
--- !u!1 &6015344986342480245
GameObject:
  m_ObjectHideFlags: 0
  m_CorrespondingSourceObject: {fileID: 0}
  m_PrefabInstance: {fileID: 0}
  m_PrefabAsset: {fileID: 0}
  serializedVersion: 6
  m_Component:
  - component: {fileID: 3466097501852986191}
  m_Layer: 0
  m_Name: CentralTermicaModel
  m_TagString: Untagged
  m_Icon: {fileID: 0}
  m_NavMeshLayer: 0
  m_StaticEditorFlags: 0
  m_IsActive: 1
--- !u!4 &3466097501852986191
Transform:
  m_ObjectHideFlags: 0
  m_CorrespondingSourceObject: {fileID: 0}
  m_PrefabInstance: {fileID: 0}
  m_PrefabAsset: {fileID: 0}
  m_GameObject: {fileID: 6015344986342480245}
  m_LocalRotation: {x: 0, y: 0, z: 0, w: 1}
  m_LocalPosition: {x: 0, y: 0, z: 0}
  m_LocalScale: {x: 1, y: 1, z: 1}
  m_Children:
  - {fileID: 2260175827471436033}
  m_Father: {fileID: 0}
  m_RootOrder: 0
  m_LocalEulerAnglesHint: {x: 0, y: 0, z: 0}
--- !u!1001 &2260175827471307649
PrefabInstance:
  m_ObjectHideFlags: 0
  serializedVersion: 2
  m_Modification:
    m_TransformParent: {fileID: 3466097501852986191}
    m_Modifications:
    - target: {fileID: 400000, guid: 9197b8e3853867e4e9c0fc37294ef82f, type: 3}
      propertyPath: m_LocalPosition.x
      value: 0.27004373
      objectReference: {fileID: 0}
    - target: {fileID: 400000, guid: 9197b8e3853867e4e9c0fc37294ef82f, type: 3}
      propertyPath: m_LocalPosition.y
      value: 0.19052
      objectReference: {fileID: 0}
    - target: {fileID: 400000, guid: 9197b8e3853867e4e9c0fc37294ef82f, type: 3}
      propertyPath: m_LocalPosition.z
      value: -0.16949755
      objectReference: {fileID: 0}
    - target: {fileID: 400000, guid: 9197b8e3853867e4e9c0fc37294ef82f, type: 3}
      propertyPath: m_LocalRotation.x
      value: -0
      objectReference: {fileID: 0}
    - target: {fileID: 400000, guid: 9197b8e3853867e4e9c0fc37294ef82f, type: 3}
      propertyPath: m_LocalRotation.y
      value: -0.13653521
      objectReference: {fileID: 0}
    - target: {fileID: 400000, guid: 9197b8e3853867e4e9c0fc37294ef82f, type: 3}
      propertyPath: m_LocalRotation.z
      value: -0
      objectReference: {fileID: 0}
    - target: {fileID: 400000, guid: 9197b8e3853867e4e9c0fc37294ef82f, type: 3}
      propertyPath: m_LocalRotation.w
      value: 0.9906352
      objectReference: {fileID: 0}
    - target: {fileID: 400000, guid: 9197b8e3853867e4e9c0fc37294ef82f, type: 3}
      propertyPath: m_RootOrder
      value: 0
      objectReference: {fileID: 0}
    - target: {fileID: 400000, guid: 9197b8e3853867e4e9c0fc37294ef82f, type: 3}
      propertyPath: m_LocalScale.x
      value: 0.2173992
      objectReference: {fileID: 0}
    - target: {fileID: 400000, guid: 9197b8e3853867e4e9c0fc37294ef82f, type: 3}
      propertyPath: m_LocalScale.y
      value: 0.21739922
      objectReference: {fileID: 0}
    - target: {fileID: 400000, guid: 9197b8e3853867e4e9c0fc37294ef82f, type: 3}
      propertyPath: m_LocalScale.z
      value: 0.21739922
      objectReference: {fileID: 0}
    - target: {fileID: 400000, guid: 9197b8e3853867e4e9c0fc37294ef82f, type: 3}
      propertyPath: m_LocalEulerAnglesHint.y
      value: -15.695001
      objectReference: {fileID: 0}
    m_RemovedComponents: []
  m_SourcePrefab: {fileID: 100100000, guid: 9197b8e3853867e4e9c0fc37294ef82f, type: 3}
--- !u!4 &2260175827471436033 stripped
Transform:
  m_CorrespondingSourceObject: {fileID: 400000, guid: 9197b8e3853867e4e9c0fc37294ef82f,
    type: 3}
  m_PrefabInstance: {fileID: 2260175827471307649}
  m_PrefabAsset: {fileID: 0}
