%YAML 1.1
%TAG !u! tag:unity3d.com,2011:
--- !u!114 &11400000
MonoBehaviour:
  m_ObjectHideFlags: 0
  m_CorrespondingSourceObject: {fileID: 0}
  m_PrefabInstance: {fileID: 0}
  m_PrefabAsset: {fileID: 0}
  m_GameObject: {fileID: 0}
  m_Enabled: 1
  m_EditorHideFlags: 0
  m_Script: {fileID: 11500000, guid: 23a9ea5836fbe4e46949ec821d5d6026, type: 3}
  m_Name: 11ConstruirCiudad
  m_EditorClassIdentifier: 
  nameAction: Construir ciudad
  description: "Como dice el dicho: una persona puede hacer en un d\xEDa lo que dos
    personas pueden hacer en dos d\xEDas."
  moneyRequirement: 0.75
  turnDuration: 2
  image: {fileID: 21300000, guid: d8bf32211454dd5499fcfff16639b05d, type: 3}
  stateRequirementsPrototype: []
  preStateChangesPrototype: []
  postStateChangesPrototype: []
  effectD:
    moneyChange: 0
    populationChange: 1
    ecologyChange: -0.25
    businessChange: 0
  changeCell: {fileID: 1734830396170783479, guid: 0f6b59da6f4310a458fa4669aa883eed,
    type: 3}
