%YAML 1.1
%TAG !u! tag:unity3d.com,2011:
--- !u!114 &11400000
MonoBehaviour:
  m_ObjectHideFlags: 0
  m_CorrespondingSourceObject: {fileID: 0}
  m_PrefabInstance: {fileID: 0}
  m_PrefabAsset: {fileID: 0}
  m_GameObject: {fileID: 0}
  m_Enabled: 1
  m_EditorHideFlags: 0
  m_Script: {fileID: 11500000, guid: 23a9ea5836fbe4e46949ec821d5d6026, type: 3}
  m_Name: 22Renovar(carbon)
  m_EditorClassIdentifier: 
  nameAction: Renovar
  description: "D\xF3nde est\xE1 la contaminaci\xF3n, que yo la vea."
  moneyRequirement: 0.5
  turnDuration: 10
  image: {fileID: 21300000, guid: 5e56847e9444ca94cb16b540b93a47fc, type: 3}
  stateRequirementsPrototype:
  - first: {fileID: 11400000, guid: 784f5858581444c45ae07af7b220175e, type: 2}
    second: 1
  preStateChangesPrototype: []
  postStateChangesPrototype: []
  effectD:
    moneyChange: 1
    populationChange: 0
    ecologyChange: -0.5
    businessChange: 1
  changeCell: {fileID: 0}
