%YAML 1.1
%TAG !u! tag:unity3d.com,2011:
--- !u!114 &11400000
MonoBehaviour:
  m_ObjectHideFlags: 0
  m_CorrespondingSourceObject: {fileID: 0}
  m_PrefabInstance: {fileID: 0}
  m_PrefabAsset: {fileID: 0}
  m_GameObject: {fileID: 0}
  m_Enabled: 1
  m_EditorHideFlags: 0
  m_Script: {fileID: 11500000, guid: 23a9ea5836fbe4e46949ec821d5d6026, type: 3}
  m_Name: 27GanaderiaExtensiva
  m_EditorClassIdentifier: 
  nameAction: "Ganader\xEDa extensiva"
  description: "Las ovejas y las vacas no se llevan muy bien, quiz\xE1s sea mejor
    que campen a sus anchas."
  moneyRequirement: 0.75
  turnDuration: 2
  image: {fileID: 21300000, guid: a1a3c1581f58ec34fad6d06e59a1692a, type: 3}
  stateRequirementsPrototype:
  - first: {fileID: 11400000, guid: 32cae262f100b10429ff88c1fb0e5aa3, type: 2}
    second: 0
  - first: {fileID: 11400000, guid: e40cfac331d44e149b4724eedeb02a36, type: 2}
    second: 1
  preStateChangesPrototype: []
  postStateChangesPrototype:
  - first: {fileID: 11400000, guid: 32cae262f100b10429ff88c1fb0e5aa3, type: 2}
    second: 1
  - first: {fileID: 11400000, guid: e40cfac331d44e149b4724eedeb02a36, type: 2}
    second: 0
  effectD:
    moneyChange: 0.75
    populationChange: 0.25
    ecologyChange: 0.5
    businessChange: -0.5
  changeCell: {fileID: 0}
