%YAML 1.1
%TAG !u! tag:unity3d.com,2011:
--- !u!114 &11400000
MonoBehaviour:
  m_ObjectHideFlags: 0
  m_CorrespondingSourceObject: {fileID: 0}
  m_PrefabInstance: {fileID: 0}
  m_PrefabAsset: {fileID: 0}
  m_GameObject: {fileID: 0}
  m_Enabled: 1
  m_EditorHideFlags: 0
  m_Script: {fileID: 11500000, guid: 23a9ea5836fbe4e46949ec821d5d6026, type: 3}
  m_Name: 7RecalificarParaje
  m_EditorClassIdentifier: 
  nameAction: Recalificar paraje
  description: "Es una pena lo del incendio, pero hay que pensar en el flamante futuro
    de esta parcela. \xA1A quitar tocones!"
  moneyRequirement: 0
  turnDuration: 1
  image: {fileID: 21300000, guid: 37b993b73daf2944199dba038355e190, type: 3}
  stateRequirementsPrototype:
  - first: {fileID: 11400000, guid: 735ff22d7befbf24fb4adc4ac072e9bd, type: 2}
    second: 0
  - first: {fileID: 11400000, guid: 277928d66bfd6c4418a00d2b17eb4f44, type: 2}
    second: 1
  preStateChangesPrototype: []
  postStateChangesPrototype: []
  effectD:
    moneyChange: 0
    populationChange: -1
    ecologyChange: 0
    businessChange: 0
  changeCell: {fileID: 8690925781145389401, guid: 1f530701bd4bb1c4c926cfb5efa8353a,
    type: 3}
