<?xml version="1.0" encoding="utf-8"?>
<COLLADA xmlns="http://www.collada.org/2005/11/COLLADASchema" version="1.4.1">
  <asset><contributor><author></author><authoring_tool>FBX COLLADA exporter</authoring_tool><comments></comments></contributor><created>2019-06-25T16:28:19Z</created><keywords></keywords><modified>2019-06-25T16:28:19Z</modified><revision></revision><subject></subject><title></title><unit meter="0.010000" name="centimeter"></unit><up_axis>Y_UP</up_axis></asset>
  <library_materials>
    <material id="lambert1" name="lambert1">
      <instance_effect url="#lambert1-fx"/>
    </material>
  </library_materials>
  <library_effects>
    <effect id="lambert1-fx" name="lambert1">
      <profile_COMMON>
        <technique sid="standard">
          <lambert>
            <emission>
              <color sid="emission">0.000000  0.000000 0.000000 1.000000</color>
            </emission>
            <ambient>
              <color sid="ambient">0.000000  0.000000 0.000000 1.000000</color>
            </ambient>
            <diffuse>
              <color sid="diffuse">0.400000  0.400000 0.400000 1.000000</color>
            </diffuse>
            <transparent opaque="RGB_ZERO">
              <color sid="transparent">0.000000  0.000000 0.000000 1.000000</color>
            </transparent>
            <transparency>
              <float sid="transparency">1.000000</float>
            </transparency>
          </lambert>
        </technique>
      </profile_COMMON>
    </effect>
  </library_effects>
  <library_geometries>
    <geometry id="pCylinder2-lib" name="pCylinder2Mesh">
      <mesh>
        <source id="pCylinder2-POSITION">
          <float_array id="pCylinder2-POSITION-array" count="150">
0.559963 -2.312846 -0.559963
-0.000000 -2.312846 -0.791907
-0.559963 -2.312846 -0.559963
-0.791907 -2.312846 -0.000000
-0.559963 -2.312846 0.559963
-0.000000 -2.312846 0.791907
0.559963 -2.312846 0.559963
0.791907 -2.312846 -0.000000
1.119925 -1.489832 -1.119925
-0.000000 -1.489832 -1.583814
-1.119925 -1.489832 -1.119925
-1.583814 -1.489832 -0.000000
-1.119925 -1.489832 1.119925
-0.000000 -1.489832 1.583814
1.119926 -1.489832 1.119926
1.583814 -1.489832 -0.000000
0.707107 1.649368 -0.707107
0.000000 1.649368 -1.000000
-0.707107 1.649368 -0.707107
-1.000000 1.649368 0.000000
-0.707107 1.649368 0.707107
0.000000 1.649368 1.000000
0.707107 1.649368 0.707107
1.000000 1.649368 0.000000
0.353553 2.169009 -0.353553
0.000000 2.169009 -0.500000
-0.353553 2.169009 -0.353553
-0.500000 2.169009 0.000000
-0.353553 2.169009 0.353553
0.000000 2.169009 0.500000
0.353553 2.169009 0.353553
0.500000 2.169009 0.000000
-0.000000 -2.355438 -0.000000
0.000000 2.357199 0.000000
0.000000 0.637581 -0.661462
0.467724 0.637581 -0.467724
0.661462 0.637581 0.000000
0.467724 0.637581 0.467724
0.000000 0.637581 0.661462
-0.467724 0.637581 0.467724
-0.661462 0.637581 0.000000
-0.467724 0.637581 -0.467724
0.002334 -0.068048 -1.276534
0.902646 -0.068048 -0.902646
1.276534 -0.068048 -0.000000
0.902646 -0.068048 0.902646
-0.000000 -0.068048 1.276534
-0.902646 -0.068048 0.902646
-1.276534 -0.068048 -0.000000
-0.904980 -0.068048 -0.902646
</float_array>
          <technique_common>
            <accessor source="#pCylinder2-POSITION-array" count="50" stride="3">
              <param name="X" type="float"/>
              <param name="Y" type="float"/>
              <param name="Z" type="float"/>
            </accessor>
          </technique_common>
        </source>
        <source id="pCylinder2-Normal0">
          <float_array id="pCylinder2-Normal0-array" count="864">
-0.000000 -0.756004 -0.654567
0.000000 -0.693358 -0.720594
0.462848 -0.756004 -0.462849
0.462848 -0.756004 -0.462849
0.000000 -0.693358 -0.720594
0.509537 -0.693358 -0.509537
-0.462848 -0.756004 -0.462848
0.000000 -0.693358 -0.720594
-0.000000 -0.756004 -0.654567
0.000000 -0.693358 -0.720594
-0.462848 -0.756004 -0.462848
-0.509537 -0.693358 -0.509537
-0.720594 -0.693358 0.000000
-0.462848 -0.756004 -0.462848
-0.654567 -0.756004 0.000000
-0.720594 -0.693358 0.000000
-0.509537 -0.693358 -0.509537
-0.462848 -0.756004 -0.462848
-0.462849 -0.756004 0.462848
-0.720594 -0.693358 0.000000
-0.654567 -0.756004 0.000000
-0.720594 -0.693358 0.000000
-0.462849 -0.756004 0.462848
-0.509537 -0.693358 0.509537
0.000000 -0.693358 0.720594
-0.509537 -0.693358 0.509537
-0.462849 -0.756004 0.462848
0.000000 -0.693358 0.720594
-0.462849 -0.756004 0.462848
-0.000000 -0.756004 0.654567
0.000000 -0.693358 0.720594
0.462848 -0.756004 0.462848
0.509537 -0.693358 0.509537
0.462848 -0.756004 0.462848
0.000000 -0.693358 0.720594
-0.000000 -0.756004 0.654567
0.509537 -0.693358 0.509537
0.462848 -0.756004 0.462848
0.720594 -0.693358 -0.000000
0.462848 -0.756004 0.462848
0.654566 -0.756004 0.000000
0.720594 -0.693358 -0.000000
0.720594 -0.693358 -0.000000
0.462848 -0.756004 -0.462849
0.509537 -0.693358 -0.509537
0.462848 -0.756004 -0.462849
0.720594 -0.693358 -0.000000
0.654566 -0.756004 0.000000
0.375668 0.195510 -0.905897
0.364062 0.311308 -0.877807
0.375668 0.195510 -0.905897
0.364062 0.311308 -0.877807
0.375668 0.195510 -0.905897
0.364064 0.311292 -0.877812
-0.374538 0.195806 -0.906301
-0.362878 0.311327 -0.878291
-0.374538 0.195806 -0.906301
-0.374538 0.195806 -0.906301
-0.362878 0.311327 -0.878291
-0.362857 0.311496 -0.878240
-0.906497 0.195091 -0.374437
-0.878433 0.311083 -0.362743
-0.906497 0.195091 -0.374437
-0.878433 0.311083 -0.362743
-0.906497 0.195091 -0.374437
-0.878379 0.311260 -0.362721
-0.877944 0.311399 0.363656
-0.905996 0.195806 0.375276
-0.905996 0.195806 0.375276
-0.905996 0.195806 0.375276
-0.877944 0.311399 0.363656
-0.877943 0.311399 0.363656
-0.363656 0.311399 0.877943
-0.375276 0.195806 0.905996
-0.363656 0.311399 0.877943
-0.375276 0.195806 0.905996
-0.363656 0.311399 0.877943
-0.375276 0.195806 0.905996
0.363656 0.311399 0.877943
0.363656 0.311399 0.877943
0.375276 0.195806 0.905996
0.375276 0.195806 0.905996
0.375276 0.195806 0.905996
0.363656 0.311399 0.877943
0.877943 0.311399 0.363656
0.905996 0.195806 0.375276
0.877943 0.311399 0.363656
0.905996 0.195806 0.375276
0.877943 0.311399 0.363656
0.905996 0.195806 0.375276
0.877943 0.311399 -0.363656
0.905996 0.195806 -0.375276
0.877943 0.311399 -0.363656
0.905996 0.195806 -0.375276
0.905996 0.195806 -0.375276
0.877943 0.311399 -0.363656
0.000000 0.693357 -0.720594
0.478895 0.735745 -0.478895
0.509537 0.693357 -0.509537
0.478895 0.735745 -0.478895
0.000000 0.693357 -0.720594
0.000000 0.735745 -0.677259
-0.478895 0.735744 -0.478895
0.000000 0.693357 -0.720594
-0.509537 0.693357 -0.509537
0.000000 0.693357 -0.720594
-0.478895 0.735744 -0.478895
0.000000 0.735745 -0.677259
-0.720594 0.693357 -0.000000
-0.478895 0.735744 -0.478895
-0.509537 0.693357 -0.509537
-0.478895 0.735744 -0.478895
-0.720594 0.693357 -0.000000
-0.677259 0.735744 -0.000000
-0.478895 0.735744 0.478894
-0.720594 0.693357 -0.000000
-0.509537 0.693357 0.509537
-0.720594 0.693357 -0.000000
-0.478895 0.735744 0.478894
-0.677259 0.735744 -0.000000
-0.478895 0.735744 0.478894
0.000000 0.693357 0.720594
-0.000000 0.735745 0.677259
0.000000 0.693357 0.720594
-0.478895 0.735744 0.478894
-0.509537 0.693357 0.509537
0.478895 0.735745 0.478894
-0.000000 0.735745 0.677259
0.000000 0.693357 0.720594
0.000000 0.693357 0.720594
0.509537 0.693357 0.509537
0.478895 0.735745 0.478894
0.478895 0.735745 0.478894
0.720594 0.693357 -0.000000
0.677259 0.735745 -0.000000
0.720594 0.693357 -0.000000
0.478895 0.735745 0.478894
0.509537 0.693357 0.509537
0.509537 0.693357 -0.509537
0.478895 0.735745 -0.478895
0.720594 0.693357 -0.000000
0.677259 0.735745 -0.000000
0.720594 0.693357 -0.000000
0.478895 0.735745 -0.478895
-0.000000 -0.756004 -0.654567
0.462848 -0.756004 -0.462849
-0.000000 -1.000000 0.000000
-0.462848 -0.756004 -0.462848
-0.000000 -0.756004 -0.654567
-0.000000 -1.000000 0.000000
-0.654567 -0.756004 0.000000
-0.462848 -0.756004 -0.462848
-0.000000 -1.000000 0.000000
-0.462849 -0.756004 0.462848
-0.654567 -0.756004 0.000000
-0.000000 -1.000000 0.000000
-0.000000 -0.756004 0.654567
-0.462849 -0.756004 0.462848
-0.000000 -1.000000 0.000000
0.462848 -0.756004 0.462848
-0.000000 -0.756004 0.654567
-0.000000 -1.000000 0.000000
0.654566 -0.756004 0.000000
0.462848 -0.756004 0.462848
-0.000000 -1.000000 0.000000
0.462848 -0.756004 -0.462849
0.654566 -0.756004 0.000000
-0.000000 -1.000000 0.000000
0.478895 0.735745 -0.478895
0.000000 0.735745 -0.677259
0.000000 1.000000 -0.000000
0.000000 0.735745 -0.677259
-0.478895 0.735744 -0.478895
0.000000 1.000000 -0.000000
-0.478895 0.735744 -0.478895
-0.677259 0.735744 -0.000000
0.000000 1.000000 -0.000000
-0.677259 0.735744 -0.000000
-0.478895 0.735744 0.478894
0.000000 1.000000 -0.000000
-0.478895 0.735744 0.478894
-0.000000 0.735745 0.677259
0.000000 1.000000 -0.000000
-0.000000 0.735745 0.677259
0.478895 0.735745 0.478894
0.000000 1.000000 -0.000000
0.478895 0.735745 0.478894
0.677259 0.735745 -0.000000
0.000000 1.000000 -0.000000
0.677259 0.735745 -0.000000
0.478895 0.735745 -0.478895
0.000000 1.000000 -0.000000
0.374682 0.206601 -0.903842
0.365613 -0.295336 -0.882669
0.374654 0.206940 -0.903775
0.374654 0.206940 -0.903775
0.365613 -0.295336 -0.882669
0.365613 -0.295336 -0.882669
0.882669 -0.295336 -0.365613
0.903861 0.207041 -0.374392
0.882669 -0.295336 -0.365613
0.903861 0.207041 -0.374392
0.882669 -0.295336 -0.365613
0.903861 0.207041 -0.374392
0.903861 0.207041 0.374392
0.882669 -0.295336 0.365613
0.903861 0.207041 0.374392
0.882669 -0.295336 0.365613
0.903861 0.207041 0.374392
0.882669 -0.295336 0.365613
0.365613 -0.295336 0.882669
0.374391 0.207041 0.903861
0.365613 -0.295336 0.882669
0.374391 0.207041 0.903861
0.365613 -0.295336 0.882669
0.374391 0.207041 0.903861
-0.365613 -0.295336 0.882669
-0.374392 0.207041 0.903861
-0.365613 -0.295336 0.882669
-0.365613 -0.295336 0.882669
-0.374392 0.207041 0.903861
-0.374392 0.207041 0.903861
-0.903861 0.207041 0.374392
-0.882669 -0.295336 0.365613
-0.903861 0.207041 0.374392
-0.882669 -0.295336 0.365613
-0.903861 0.207041 0.374392
-0.882669 -0.295336 0.365613
-0.882669 -0.295336 -0.365613
-0.904051 0.207370 -0.373751
-0.904015 0.207553 -0.373736
-0.904051 0.207370 -0.373751
-0.882669 -0.295336 -0.365613
-0.882669 -0.295336 -0.365613
-0.373798 0.208091 -0.903866
-0.365613 -0.295336 -0.882669
-0.373794 0.208134 -0.903857
-0.365613 -0.295336 -0.882669
-0.373798 0.208091 -0.903866
-0.365613 -0.295336 -0.882669
0.364064 0.311292 -0.877812
0.374654 0.206940 -0.903775
0.364062 0.311308 -0.877807
0.374654 0.206940 -0.903775
0.364064 0.311292 -0.877812
0.374682 0.206601 -0.903842
0.877943 0.311399 -0.363656
0.903861 0.207041 -0.374392
0.877943 0.311399 -0.363656
0.903861 0.207041 -0.374392
0.877943 0.311399 -0.363656
0.903861 0.207041 -0.374392
0.903861 0.207041 0.374392
0.877943 0.311399 0.363656
0.903861 0.207041 0.374392
0.877943 0.311399 0.363656
0.903861 0.207041 0.374392
0.877943 0.311399 0.363656
0.374391 0.207041 0.903861
0.374391 0.207041 0.903861
0.363656 0.311399 0.877943
0.363656 0.311399 0.877943
0.363656 0.311399 0.877943
0.374391 0.207041 0.903861
-0.374392 0.207041 0.903861
-0.363656 0.311399 0.877943
-0.374392 0.207041 0.903861
-0.363656 0.311399 0.877943
-0.374392 0.207041 0.903861
-0.363656 0.311399 0.877943
-0.903861 0.207041 0.374392
-0.877943 0.311399 0.363656
-0.877944 0.311399 0.363656
-0.877943 0.311399 0.363656
-0.903861 0.207041 0.374392
-0.903861 0.207041 0.374392
-0.878379 0.311260 -0.362721
-0.904051 0.207370 -0.373751
-0.878433 0.311083 -0.362743
-0.904051 0.207370 -0.373751
-0.878379 0.311260 -0.362721
-0.904015 0.207553 -0.373736
-0.362878 0.311327 -0.878291
-0.373798 0.208091 -0.903866
-0.362857 0.311496 -0.878240
-0.362857 0.311496 -0.878240
-0.373798 0.208091 -0.903866
-0.373794 0.208134 -0.903857
</float_array>
          <technique_common>
            <accessor source="#pCylinder2-Normal0-array" count="288" stride="3">
              <param name="X" type="float"/>
              <param name="Y" type="float"/>
              <param name="Z" type="float"/>
            </accessor>
          </technique_common>
        </source>
        <source id="pCylinder2-UV0">
          <float_array id="pCylinder2-UV0-array" count="140">
0.555243 0.101007
0.500000 0.078125
0.444757 0.101007
0.421875 0.156250
0.444757 0.211493
0.500000 0.234375
0.555243 0.211493
0.578125 0.156250
0.610485 0.045765
0.500000 0.000000
0.389515 0.045765
0.343750 0.156250
0.389515 0.266735
0.500000 0.312500
0.610485 0.266735
0.656250 0.156250
0.375000 0.312500
0.406250 0.312500
0.437500 0.312500
0.468750 0.312500
0.500000 0.312500
0.531250 0.312500
0.562500 0.312500
0.593750 0.312500
0.625000 0.312500
0.375000 0.688440
0.406250 0.688440
0.437500 0.688440
0.468750 0.688440
0.500000 0.688440
0.531250 0.688440
0.562500 0.688440
0.593750 0.688440
0.625000 0.688440
0.610485 0.733265
0.500000 0.687500
0.389515 0.733265
0.343750 0.843750
0.389515 0.954235
0.500000 1.000000
0.610485 0.954235
0.656250 0.843750
0.555243 0.788507
0.500000 0.765625
0.444757 0.788507
0.421875 0.843750
0.444757 0.898993
0.500000 0.921875
0.555243 0.898993
0.578125 0.843750
0.500000 0.150000
0.500000 0.837500
0.406250 0.573132
0.625000 0.573132
0.375000 0.573132
0.593750 0.573132
0.562500 0.573132
0.531250 0.573132
0.500000 0.573132
0.468750 0.573132
0.437500 0.573132
0.406250 0.486684
0.625000 0.486684
0.375000 0.486684
0.593750 0.486684
0.562500 0.486684
0.531250 0.486684
0.500000 0.486684
0.468750 0.486684
0.437500 0.486684
</float_array>
          <technique_common>
            <accessor source="#pCylinder2-UV0-array" count="70" stride="2">
              <param name="S" type="float"/>
              <param name="T" type="float"/>
            </accessor>
          </technique_common>
        </source>
        <vertices id="pCylinder2-VERTEX">
          <input semantic="POSITION" source="#pCylinder2-POSITION"/>
        </vertices>
        <triangles count="96" material="lambert1"><input semantic="VERTEX" offset="0" source="#pCylinder2-VERTEX"/><input semantic="NORMAL" offset="1" source="#pCylinder2-Normal0"/><input semantic="TEXCOORD" offset="2" set="0" source="#pCylinder2-UV0"/><p> 1 0 1 9 1 9 0 2 0 0 3 0 9 4 9 8 5 8 2 6 2 9 7 9 1 8 1 9 9 9 2 10 2 10 11 10 11 12 11 2 13 2 3 14 3 11 15 11 10 16 10 2 17 2 4 18 4 11 19 11 3 20 3 11 21 11 4 22 4 12 23 12 13 24 13 12 25 12 4 26 4 13 27 13 4 28 4 5 29 5 13 30 13 6 31 6 14 32 14 6 33 6 13 34 13 5 35 5 14 36 14 6 37 6 15 38 15 6 39 6 7 40 7 15 41 15 15 42 15 0 43 0 8 44 8 0 45 0 15 46 15 7 47 7 9 48 17 43 49 63 8 50 16 43 51 63 9 52 17 42 53 61 10 54 18 49 55 69 9 56 17 9 57 17 49 58 69 42 59 61 11 60 19 49 61 69 10 62 18 49 63 69 11 64 19 48 65 68 47 66 67 11 67 19 12 68 20 11 69 19 47 70 67 48 71 68 47 72 67 13 73 21 46 74 66 13 75 21 47 76 67 12 77 20 45 78 65 46 79 66 13 80 21 13 81 21 14 82 22 45 83 65 45 84 65 15 85 23 44 86 64 15 87 23 45 88 65 14 89 22 44 90 64 15 91 23 43 92 62 15 93 23 8 94 24 43 95 62 17 96 39 24 97 48 16 98 40 24 99 48 17 100 39 25 101 47 26 102 46 17 103 39 18 104 38 17 105 39 26 106 46 25 107 47 19 108 37 26 109 46 18 110 38 26 111 46 19 112 37 27 113 45 28 114 44 19 115 37 20 116 36 19 117 37 28 118 44 27 119 45 28 120 44 21 121 35 29 122 43 21 123 35 28 124 44 20 125 36 30 126 42 29 127 43 21 128 35 21 129 35 22 130 34 30 131 42 30 132 42 23 133 41 31 134 49 23 135 41 30 136 42 22 137 34 16 138 40 24 139 48 23 140 41 31 141 49 23 142 41 24 143 48 1 144 1 0 145 0 32 146 50 2 147 2 1 148 1 32 149 50 3 150 3 2 151 2 32 152 50 4 153 4 3 154 3 32 155 50 5 156 5 4 157 4 32 158 50 6 159 6 5 160 5 32 161 50 7 162 7 6 163 6 32 164 50 0 165 0 7 166 7 32 167 50 24 168 48 25 169 47 33 170 51 25 171 47 26 172 46 33 173 51 26 174 46 27 175 45 33 176 51 27 177 45 28 178 44 33 179 51 28 180 44 29 181 43 33 182 51 29 183 43 30 184 42 33 185 51 30 186 42 31 187 49 33 188 51 31 189 49 24 190 48 33 191 51 34 192 52 17 193 26 35 194 54 35 195 54 17 196 26 16 197 25 23 198 32 35 199 53 16 200 33 35 201 53 23 202 32 36 203 55 36 204 55 23 205 32 37 206 56 22 207 31 37 208 56 23 209 32 21 210 30 37 211 56 22 212 31 37 213 56 21 214 30 38 215 57 20 216 29 39 217 58 21 218 30 21 219 30 39 220 58 38 221 57 39 222 58 19 223 28 40 224 59 19 225 28 39 226 58 20 227 29 19 228 28 41 229 60 40 230 59 41 231 60 19 232 28 18 233 27 41 234 60 17 235 26 34 236 52 17 237 26 41 238 60 18 239 27 42 240 61 35 241 54 43 242 63 35 243 54 42 244 61 34 245 52 43 246 62 35 247 53 44 248 64 36 249 55 44 250 64 35 251 53 37 252 56 44 253 64 36 254 55 44 255 64 37 256 56 45 257 65 37 258 56 38 259 57 46 260 66 46 261 66 45 262 65 37 263 56 39 264 58 46 265 66 38 266 57 46 267 66 39 268 58 47 269 67 39 270 58 48 271 68 47 272 67 48 273 68 39 274 58 40 275 59 48 276 68 41 277 60 49 278 69 41 279 60 48 280 68 40 281 59 49 282 69 41 283 60 42 284 61 42 285 61 41 286 60 34 287 52</p></triangles>
      </mesh>
    </geometry>
  </library_geometries>
  <library_visual_scenes>
    <visual_scene id="person2" name="person2">
      <node name="pCylinder2" id="pCylinder2" sid="pCylinder2"><matrix sid="matrix">1.000000 0.000000 0.000000 0.000000 0.000000 1.000000 0.000000 0.000000 0.000000 0.000000 1.000000 0.000000 0.000000 0.000000 0.000000 1.000000</matrix><instance_geometry url="#pCylinder2-lib"><bind_material><technique_common><instance_material symbol="lambert1" target="#lambert1"/></technique_common></bind_material></instance_geometry><extra><technique profile="FCOLLADA"><visibility>1.000000</visibility></technique></extra></node>
      <extra><technique profile="MAX3D"><frame_rate>24.000000</frame_rate></technique><technique profile="FCOLLADA"><start_time>0.041667</start_time><end_time>8.333333</end_time></technique></extra>
    </visual_scene>
  </library_visual_scenes>
  <scene>
    <instance_visual_scene url="#person2"></instance_visual_scene>
  </scene>
</COLLADA>
