%YAML 1.1
%TAG !u! tag:unity3d.com,2011:
--- !u!221 &22100000
AnimatorOverrideController:
  m_ObjectHideFlags: 0
  m_CorrespondingSourceObject: {fileID: 0}
  m_PrefabInstance: {fileID: 0}
  m_PrefabAsset: {fileID: 0}
  m_Name: Squirrel
  m_Controller: {fileID: 9100000, guid: 75748063ab45c9a4580e4a27b55cd059, type: 2}
  m_Clips:
  - m_OriginalClip: {fileID: 7400002, guid: 265ee6fac4cc17345b23403e90e2ba45, type: 3}
    m_OverrideClip: {fileID: 7400002, guid: 265ee6fac4cc17345b23403e90e2ba45, type: 3}
