%YAML 1.1
%TAG !u! tag:unity3d.com,2011:
--- !u!1 &8414265903847305947
GameObject:
  m_ObjectHideFlags: 0
  m_CorrespondingSourceObject: {fileID: 0}
  m_PrefabInstance: {fileID: 0}
  m_PrefabAsset: {fileID: 0}
  serializedVersion: 6
  m_Component:
  - component: {fileID: 1875952885}
  - component: {fileID: 4490254074863207194}
  m_Layer: 0
  m_Name: "Monta\xF1a"
  m_TagString: Untagged
  m_Icon: {fileID: 0}
  m_NavMeshLayer: 0
  m_StaticEditorFlags: 0
  m_IsActive: 1
--- !u!4 &1875952885
Transform:
  m_ObjectHideFlags: 0
  m_CorrespondingSourceObject: {fileID: 0}
  m_PrefabInstance: {fileID: 0}
  m_PrefabAsset: {fileID: 0}
  m_GameObject: {fileID: 8414265903847305947}
  m_LocalRotation: {x: 0, y: -0, z: -0, w: 1}
  m_LocalPosition: {x: -1, y: 0, z: 0}
  m_LocalScale: {x: 1, y: 1, z: 1}
  m_Children:
  - {fileID: 571375743}
  m_Father: {fileID: 0}
  m_RootOrder: 0
  m_LocalEulerAnglesHint: {x: 0, y: 0, z: 0}
--- !u!114 &4490254074863207194
MonoBehaviour:
  m_ObjectHideFlags: 0
  m_CorrespondingSourceObject: {fileID: 0}
  m_PrefabInstance: {fileID: 0}
  m_PrefabAsset: {fileID: 0}
  m_GameObject: {fileID: 8414265903847305947}
  m_Enabled: 1
  m_EditorHideFlags: 0
  m_Script: {fileID: 11500000, guid: 241e9790641da1440963751dd1dd4e04, type: 3}
  m_Name: 
  m_EditorClassIdentifier: 
  modelCell:
    cellType: 6
    tileName: "Monta\xF1a"
    description: "Lo de las cabras, los paseos y el exilio de pol\xEDticos perseguidos
      en las guerras."
    allActionsData: []
    cellStatePrototype: []
    cellState:
      m_keys: []
      m_values: 
    viewCell: {fileID: 0}
    mapCell: {fileID: 0}
    blocked: 0
--- !u!1001 &570989311
PrefabInstance:
  m_ObjectHideFlags: 0
  serializedVersion: 2
  m_Modification:
    m_TransformParent: {fileID: 1875952885}
    m_Modifications:
    - target: {fileID: 400000, guid: 86e82c81de2a4a74da13c3984957a116, type: 3}
      propertyPath: m_LocalPosition.x
      value: 0.0069999695
      objectReference: {fileID: 0}
    - target: {fileID: 400000, guid: 86e82c81de2a4a74da13c3984957a116, type: 3}
      propertyPath: m_LocalPosition.y
      value: -0.019999996
      objectReference: {fileID: 0}
    - target: {fileID: 400000, guid: 86e82c81de2a4a74da13c3984957a116, type: 3}
      propertyPath: m_LocalPosition.z
      value: 0.020999968
      objectReference: {fileID: 0}
    - target: {fileID: 400000, guid: 86e82c81de2a4a74da13c3984957a116, type: 3}
      propertyPath: m_LocalRotation.x
      value: -0
      objectReference: {fileID: 0}
    - target: {fileID: 400000, guid: 86e82c81de2a4a74da13c3984957a116, type: 3}
      propertyPath: m_LocalRotation.y
      value: -0
      objectReference: {fileID: 0}
    - target: {fileID: 400000, guid: 86e82c81de2a4a74da13c3984957a116, type: 3}
      propertyPath: m_LocalRotation.z
      value: -0
      objectReference: {fileID: 0}
    - target: {fileID: 400000, guid: 86e82c81de2a4a74da13c3984957a116, type: 3}
      propertyPath: m_LocalRotation.w
      value: 1
      objectReference: {fileID: 0}
    - target: {fileID: 400000, guid: 86e82c81de2a4a74da13c3984957a116, type: 3}
      propertyPath: m_RootOrder
      value: 0
      objectReference: {fileID: 0}
    m_RemovedComponents: []
  m_SourcePrefab: {fileID: 100100000, guid: 86e82c81de2a4a74da13c3984957a116, type: 3}
--- !u!4 &571375743 stripped
Transform:
  m_CorrespondingSourceObject: {fileID: 400000, guid: 86e82c81de2a4a74da13c3984957a116,
    type: 3}
  m_PrefabInstance: {fileID: 570989311}
  m_PrefabAsset: {fileID: 0}
