# Blender v2.80 (sub 53) OBJ File: ''
# www.blender.org
mtllib sphereLP.mtl
o SurfSphere
v -0.567673 -0.572478 0.567673
v -0.697841 -0.351327 0.697841
v -0.652564 -0.769068 0.117593
v -1.007581 -0.351325 0.181568
v -0.266991 -0.842757 0.565005
v -0.181569 -0.351324 1.007581
v -0.281296 -1.021983 0.271925
v -0.697841 0.351325 0.697841
v -0.567673 0.572477 0.567671
v -1.007581 0.351322 0.181569
v -0.652567 0.769063 0.117595
v -0.181568 0.351324 1.007581
v -0.266990 0.842753 0.565009
v -0.339815 0.959598 0.339815
v -0.530073 -0.816052 -0.333952
v -0.956518 -0.351324 -0.266678
v -0.567672 -0.572477 -0.567673
v -0.697840 -0.351327 -0.697840
v -0.224222 -1.001180 -0.328387
v -0.117592 -0.769066 -0.652565
v -0.181568 -0.351326 -1.007578
v -0.956518 0.351323 -0.266677
v -0.530080 0.816045 -0.333950
v -0.697842 0.351325 -0.697839
v -0.567670 0.572476 -0.567674
v -0.307018 0.931487 -0.385962
v -0.181569 0.351323 -1.007579
v -0.117593 0.769065 -0.652565
v 0.333949 -0.816051 0.530077
v 0.266677 -0.351325 0.956518
v 0.381198 -0.937959 0.299911
v 0.567672 -0.572477 0.567673
v 0.697839 -0.351327 0.697841
v 0.652561 -0.769070 0.117594
v 1.007579 -0.351324 0.181569
v 0.266679 0.351322 0.956518
v 0.333951 0.816052 0.530072
v 0.385962 0.931484 0.307022
v 0.697839 0.351325 0.697842
v 0.567670 0.572476 0.567674
v 1.007579 0.351323 0.181569
v 0.652563 0.769065 0.117593
v 0.363873 -0.919355 -0.342314
v 0.333951 -0.816052 -0.530071
v 0.266676 -0.351324 -0.956517
v 0.619496 -0.769063 -0.172714
v 0.956516 -0.351326 -0.266677
v 0.567672 -0.572476 -0.567671
v 0.697840 -0.351327 -0.697838
v 0.380551 0.890390 -0.380544
v 0.266678 0.351323 -0.956516
v 0.333953 0.816042 -0.530080
v 0.956516 0.351322 -0.266678
v 0.619490 0.769067 -0.172715
v 0.697838 0.351326 -0.697840
v 0.567671 0.572476 -0.567672
vn -0.6671 -0.6283 0.4003
vn -0.4003 -0.6283 0.6671
vn -0.6073 -0.6797 0.4114
vn -0.6671 0.6283 0.4003
vn -0.4003 0.6283 0.6671
vn -0.5701 0.6393 0.5161
vn -0.6826 -0.5581 -0.4718
vn -0.4003 -0.6283 -0.6671
vn -0.3993 -0.6782 -0.6169
vn -0.6671 0.6283 -0.4003
vn -0.4003 0.6283 -0.6671
vn -0.4740 0.6466 -0.5976
vn 0.6671 -0.6283 0.4003
vn 0.4718 -0.5581 0.6826
vn 0.6009 -0.6487 0.4670
vn 0.6671 0.6283 0.4003
vn 0.4718 0.5581 0.6826
vn 0.5976 0.6466 0.4740
vn 0.6671 -0.6283 -0.4003
vn 0.4718 -0.5581 -0.6826
vn 0.6541 -0.6138 -0.4420
vn 0.6671 0.6283 -0.4003
vn 0.4718 0.5581 -0.6826
vn 0.0835 -0.6748 0.7332
vn 0.0680 -0.8526 0.5181
vn 0.0835 0.6748 0.7332
vn 0.0665 0.8797 0.4708
vn 0.0872 -0.6373 -0.7656
vn 0.1085 -0.8636 -0.4924
vn 0.0872 0.6373 -0.7656
vn 0.0559 0.8698 -0.4902
vn -0.7398 -0.6597 -0.1320
vn -0.5382 -0.8390 -0.0802
vn 0.7656 -0.6373 -0.0872
vn 0.4997 -0.8643 -0.0569
vn -0.7656 0.6373 -0.0872
vn -0.4902 0.8698 -0.0558
vn 0.7656 0.6373 -0.0872
vn 0.4902 0.8698 -0.0558
vn -0.8575 -0.0000 0.5145
vn -0.5145 -0.0000 0.8575
vn -0.8575 -0.0000 -0.5145
vn -0.5145 0.0000 -0.8575
vn 0.8575 -0.0000 0.5145
vn 0.5145 -0.0000 0.8575
vn 0.8575 -0.0000 -0.5145
vn 0.5145 -0.0000 -0.8575
vn -0.9936 0.0000 -0.1132
vn 0.9936 0.0000 -0.1132
vn 0.1132 0.0000 0.9936
vn 0.1132 -0.0000 -0.9936
vn 0.1267 -0.9917 -0.0223
vn 0.0370 0.9986 -0.0370
vn -0.4792 -0.5399 0.6920
vn -0.6235 -0.6531 0.4298
vn -0.4792 0.5399 0.6920
vn -0.6671 -0.6283 -0.4003
vn -0.4082 -0.6641 -0.6264
vn -0.6826 0.5581 -0.4718
vn 0.4003 -0.6283 0.6671
vn 0.6629 -0.6321 0.4011
vn 0.4003 0.6283 0.6671
vn 0.4003 -0.6283 -0.6671
vn 0.6248 -0.6632 -0.4121
vn 0.4003 0.6283 -0.6671
vn 0.5851 0.6386 -0.4998
vn 0.0727 -0.6686 0.7401
vn 0.0903 -0.8723 0.4806
vn 0.0727 0.6686 0.7401
vn 0.0548 0.8934 0.4459
vn 0.1320 -0.6597 -0.7398
vn 0.0680 -0.8216 -0.5659
vn 0.1320 0.6597 -0.7398
vn 0.0300 0.8913 -0.4525
vn -0.7656 -0.6373 -0.0872
vn -0.5165 -0.8548 -0.0512
vn 0.5255 -0.8499 -0.0388
vn -0.7398 0.6597 -0.1320
vn -0.4657 0.8843 -0.0343
vn 0.1370 -0.9900 -0.0324
vn 0.0600 0.9964 -0.0600
usemtl None
s off
f 1//1 4//1 3//1
f 1//2 6//2 2//2
f 3//3 5//3 1//3
f 9//4 10//4 8//4
f 12//5 9//5 8//5
f 14//6 9//6 13//6
f 16//7 17//7 15//7
f 21//8 17//8 18//8
f 15//9 20//9 19//9
f 22//10 25//10 24//10
f 25//11 27//11 24//11
f 26//12 25//12 23//12
f 35//13 32//13 34//13
f 32//14 30//14 29//14
f 31//15 32//15 29//15
f 41//16 40//16 39//16
f 36//17 40//17 37//17
f 40//18 38//18 37//18
f 48//19 47//19 46//19
f 45//20 48//20 44//20
f 44//21 46//21 43//21
f 56//22 53//22 55//22
f 56//23 51//23 52//23
f 56//22 50//22 54//22
f 5//24 30//24 6//24
f 7//25 29//25 5//25
f 36//26 13//26 12//26
f 38//27 13//27 37//27
f 45//28 20//28 21//28
f 19//29 44//29 43//29
f 28//30 51//30 27//30
f 50//31 28//31 26//31
f 3//32 16//32 15//32
f 3//33 19//33 7//33
f 47//34 34//34 46//34
f 31//35 46//35 34//35
f 11//36 22//36 10//36
f 26//37 11//37 14//37
f 53//38 42//38 41//38
f 54//39 38//39 42//39
f 2//40 10//40 4//40
f 6//41 8//41 2//41
f 16//42 24//42 18//42
f 27//43 18//43 24//43
f 35//44 39//44 33//44
f 33//45 36//45 30//45
f 49//46 53//46 47//46
f 55//47 45//47 51//47
f 10//48 16//48 4//48
f 53//49 35//49 47//49
f 6//50 36//50 12//50
f 27//51 45//51 21//51
f 19//52 31//52 7//52
f 38//53 26//53 14//53
f 1//1 2//1 4//1
f 1//54 5//54 6//54
f 3//55 7//55 5//55
f 9//4 11//4 10//4
f 12//56 13//56 9//56
f 14//4 11//4 9//4
f 16//57 18//57 17//57
f 21//8 20//8 17//8
f 15//58 17//58 20//58
f 22//59 23//59 25//59
f 25//11 28//11 27//11
f 26//11 28//11 25//11
f 35//13 33//13 32//13
f 32//60 33//60 30//60
f 31//61 34//61 32//61
f 41//16 42//16 40//16
f 36//62 39//62 40//62
f 40//16 42//16 38//16
f 48//19 49//19 47//19
f 45//63 49//63 48//63
f 44//64 48//64 46//64
f 56//22 54//22 53//22
f 56//65 55//65 51//65
f 56//66 52//66 50//66
f 5//67 29//67 30//67
f 7//68 31//68 29//68
f 36//69 37//69 13//69
f 38//70 14//70 13//70
f 45//71 44//71 20//71
f 19//72 20//72 44//72
f 28//73 52//73 51//73
f 50//74 52//74 28//74
f 3//75 4//75 16//75
f 3//76 15//76 19//76
f 47//34 35//34 34//34
f 31//77 43//77 46//77
f 11//78 23//78 22//78
f 26//79 23//79 11//79
f 53//38 54//38 42//38
f 54//39 50//39 38//39
f 2//40 8//40 10//40
f 6//41 12//41 8//41
f 16//42 22//42 24//42
f 27//43 21//43 18//43
f 35//44 41//44 39//44
f 33//45 39//45 36//45
f 49//46 55//46 53//46
f 55//47 49//47 45//47
f 10//48 22//48 16//48
f 53//49 41//49 35//49
f 6//50 30//50 36//50
f 27//51 51//51 45//51
f 19//80 43//80 31//80
f 38//81 50//81 26//81
